﻿<?xml version="1.0" encoding="utf-8"?>
<svg version="1.1" xmlns:xlink="http://www.w3.org/1999/xlink" width="12px" height="12px" xmlns="http://www.w3.org/2000/svg">
  <g transform="matrix(1 0 0 1 -564 -279 )">
    <path d="M 12 6  C 12 2.64  9.36 0  6 0  C 2.64 0  0 2.64  0 6  C 0 9.36  2.64 12  6 12  C 9.36 12  12 9.36  12 6  Z " fill-rule="nonzero" fill="#ffffff" stroke="none" transform="matrix(1 0 0 1 564 279 )" />
  </g>
</svg>