﻿<?xml version="1.0" encoding="utf-8"?>
<svg version="1.1" xmlns:xlink="http://www.w3.org/1999/xlink" width="14px" height="16px" xmlns="http://www.w3.org/2000/svg">
  <g transform="matrix(1 0 0 1 -30 -267 )">
    <path d="M 13.825 8.82727272727273  C 13.9416666666667 8.97272727272727  14 9.13333333333333  14 9.30909090909091  C 14 9.55151515151515  13.8979166666667 9.75757575757576  13.69375 9.92727272727273  C 13.4895833333333 10.0969696969697  13.2416666666667 10.1818181818182  12.95 10.1818181818182  C 12.578125 10.1818181818182  12.2864583333333 10.0515151515152  12.075 9.79090909090909  L 9.5921875 6.69090909090909  L 9.1 6.69090909090909  L 9.1 7.89090909090909  L 11.8015625 11.6272727272727  C 11.8671875 11.7181818181818  11.9 11.8181818181818  11.9 11.9272727272727  C 11.9 12.0848484848485  11.8307291666667 12.2212121212121  11.6921875 12.3363636363636  C 11.5536458333333 12.4515151515152  11.3895833333333 12.5090909090909  11.2 12.5090909090909  L 9.1 12.5090909090909  L 9.1 14.9818181818182  C 9.1 15.2606060606061  8.9796875 15.5  8.7390625 15.7  C 8.4984375 15.9  8.21041666666667 16  7.875 16  L 6.125 16  C 5.78958333333333 16  5.5015625 15.9  5.2609375 15.7  C 5.0203125 15.5  4.9 15.2606060606061  4.9 14.9818181818182  L 4.9 12.5090909090909  L 2.8 12.5090909090909  C 2.61041666666667 12.5090909090909  2.44635416666667 12.4515151515152  2.3078125 12.3363636363636  C 2.16927083333333 12.2212121212121  2.1 12.0848484848485  2.1 11.9272727272727  C 2.1 11.8181818181818  2.1328125 11.7181818181818  2.1984375 11.6272727272727  L 4.9 7.89090909090909  L 4.9 6.69090909090909  L 4.4078125 6.69090909090909  L 1.925 9.79090909090909  C 1.71354166666667 10.0515151515152  1.421875 10.1818181818182  1.05 10.1818181818182  C 0.758333333333333 10.1818181818182  0.510416666666667 10.0969696969697  0.30625 9.92727272727273  C 0.102083333333333 9.75757575757576  0 9.55151515151515  0 9.30909090909091  C 0 9.13333333333333  0.0583333333333333 8.97272727272727  0.175 8.82727272727273  L 2.975 5.33636363636364  C 3.50729166666667 4.68787878787879  4.14895833333333 4.36363636363636  4.9 4.36363636363636  L 9.1 4.36363636363636  C 9.85104166666667 4.36363636363636  10.4927083333333 4.68787878787879  11.025 5.33636363636364  L 13.825 8.82727272727273  Z M 8.73359375 0.595454545454546  C 9.21119791666667 0.99242424242424  9.45 1.47272727272727  9.45 2.03636363636364  C 9.45 2.6  9.21119791666667 3.08030303030303  8.73359375 3.47727272727273  C 8.25598958333333 3.87424242424242  7.678125 4.07272727272727  7 4.07272727272727  C 6.321875 4.07272727272727  5.74401041666667 3.87424242424242  5.26640625 3.47727272727273  C 4.78880208333333 3.08030303030303  4.55 2.6  4.55 2.03636363636364  C 4.55 1.47272727272727  4.78880208333333 0.99242424242424  5.26640625 0.595454545454546  C 5.74401041666667 0.198484848484847  6.321875 0  7 0  C 7.678125 0  8.25598958333333 0.198484848484847  8.73359375 0.595454545454546  Z " fill-rule="nonzero" fill="#000000" stroke="none" transform="matrix(1 0 0 1 30 267 )" />
  </g>
</svg>